@startuml
class AutoMobileShaderSwitch {
}
class ReplacementDefinition {
}
class ReplacementList {
}
MonoBehaviour <|-- AutoMobileShaderSwitch
AutoMobileShaderSwitch +-- ReplacementDefinition
ReplacementDefinition o-> "original" Shader
ReplacementDefinition o-> "replacement" Shader
AutoMobileShaderSwitch +-- ReplacementList
@enduml
