@startuml
class AutoMoveAndRotate {
    + ignoreTimescale : bool
}
class Vector3andSpace {
}
MonoBehaviour <|-- AutoMoveAndRotate
AutoMoveAndRotate --> "moveUnitsPerSecond" Vector3andSpace
AutoMoveAndRotate --> "rotateDegreesPerSecond" Vector3andSpace
AutoMoveAndRotate +-- Vector3andSpace
Vector3andSpace --> "value" Vector3
Vector3andSpace o-> "space" Space
@enduml
