@startuml
enum RenderBillBoardType {
    Normal,
    Horizontal,
    Vertical,
}
class MaterialEffect {
    + m_EnableAlphaAnimation : bool = false
    + m_AlphaAnimationTimeScale : float = 1.0f
    + m_EnableUVScroll : bool = false
    + MaterialEffect(material:Material)
    + ReInitMaterial(material:Material) : void
    + UpdateEffect(execueTime:float) : void
    SetAlpha(value:float) : void
}
class RenderEffect {
    + m_EnableBillBoard : bool = false
    + m_EnableSetSortLayer : bool = true
    + m_SortingLayerID : int
    + m_SortingOrder : int
    Awake() : void
    OnEnable() : void
    + UpdateRenderLayer() : void
    + RefreshMaterial() : void
    UpdateBillBoard() : void
    Update() : void
    LateUpdate() : void
    + Sim(timer:float) : void
}
class "List`1"<T> {
}
MaterialEffect --> "m_EffectMaterial" Material
MaterialEffect o-> "m_AlphaCurve" AnimationCurve
MaterialEffect o-> "m_MainTexture" Texture
MaterialEffect o-> "m_MaskTexutre" Texture
MaterialEffect --> "m_MainTexWrapMode" TextureWrapMode
MaterialEffect --> "m_MaskTexWrapMode" TextureWrapMode
MaterialEffect --> "m_UVScrollMainTex" Vector2
MaterialEffect --> "m_UVScrollCutTex" Vector2
MonoBehaviour <|-- RenderEffect
RenderEffect --> "m_BillBoardType" RenderBillBoardType
RenderEffect --> "m_Render" Renderer
RenderEffect o-> "m_MaterialEffects<MaterialEffect>" "List`1"
@enduml
