@startuml
class StatusModel {
}
MonoBehaviour <|-- StatusModel
StatusModel o-> "Level" IntReactiveProperty
StatusModel o-> "MaxHP" IntReactiveProperty
StatusModel o-> "HP" IntReactiveProperty
StatusModel o-> "Exp" IntReactiveProperty
StatusModel o-> "NextExp" IntReactiveProperty
@enduml
